\relax 
\providecommand\hyper@newdestlabel[2]{}
\providecommand\HyperFirstAtBeginDocument{\AtBeginDocument}
\HyperFirstAtBeginDocument{\ifx\hyper@anchor\@undefined
\global\let\oldcontentsline\contentsline
\gdef\contentsline#1#2#3#4{\oldcontentsline{#1}{#2}{#3}}
\global\let\oldnewlabel\newlabel
\gdef\newlabel#1#2{\newlabelxx{#1}#2}
\gdef\newlabelxx#1#2#3#4#5#6{\oldnewlabel{#1}{{#2}{#3}}}
\AtEndDocument{\ifx\hyper@anchor\@undefined
\let\contentsline\oldcontentsline
\let\newlabel\oldnewlabel
\fi}
\fi}
\global\let\hyper@last\relax 
\gdef\HyperFirstAtBeginDocument#1{#1}
\providecommand\HyField@AuxAddToFields[1]{}
\providecommand\HyField@AuxAddToCoFields[2]{}
\citation{axtell2009emergence}
\@writefile{toc}{\contentsline {section}{\numberline {1}Introduction}{1}{section.1}\protected@file@percent }
\newlabel{sec:introduction}{{1}{1}{Introduction}{section.1}{}}
\citation{axtell2009emergence}
\citation{axtell2009emergence}
\@writefile{toc}{\contentsline {section}{\numberline {2}Economic Model}{2}{section.2}\protected@file@percent }
\newlabel{sec:economic-model}{{2}{2}{Economic Model}{section.2}{}}
\newlabel{eq:shareofoutput}{{1}{2}{Economic Model}{equation.2.1}{}}
\newlabel{eq:equation}{{2}{2}{Economic Model}{equation.2.2}{}}
\newlabel{eq:equation2}{{3}{3}{Economic Model}{equation.2.3}{}}
\newlabel{optimalUtility}{{2}{3}{Economic Model}{equation.2.5}{}}
\newlabel{eq:equation3}{{6}{3}{Economic Model}{equation.2.6}{}}
\@writefile{toc}{\contentsline {subsection}{\numberline {2.1}Pareto Optimum for Homogeneous Groups}{3}{subsection.2.1}\protected@file@percent }
\newlabel{subsec:pareto-optimum-for-homogeneous-groups}{{2.1}{3}{Pareto Optimum for Homogeneous Groups}{subsection.2.1}{}}
\newlabel{eq:equation4}{{8}{3}{Pareto Optimum for Homogeneous Groups}{equation.2.8}{}}
\newlabel{eq:paretoEffort}{{10}{4}{Pareto Optimum for Homogeneous Groups}{equation.2.10}{}}
\@writefile{toc}{\contentsline {subsection}{\numberline {2.2}Comparing Nash Equilibrium and Pareto Optimum}{4}{subsection.2.2}\protected@file@percent }
\newlabel{subsec:comparing-nash-equilibrium-and-pareto-optimum}{{2.2}{4}{Comparing Nash Equilibrium and Pareto Optimum}{subsection.2.2}{}}
\@writefile{lof}{\contentsline {figure}{\numberline {1}{\ignorespaces Comparing the efforts level of every agent for all preferences. The orange line is the Pareto Optimum, the blue line is the Nash Equilibrium. We assume a group of 10 agents and $b=0.5$}}{4}{figure.1}\protected@file@percent }
\newlabel{fig:paretoVSnash}{{1}{4}{Comparing the efforts level of every agent for all preferences. The orange line is the Pareto Optimum, the blue line is the Nash Equilibrium. We assume a group of 10 agents and $b=0.5$}{figure.1}{}}
\newlabel{eq:nash_effort}{{11}{4}{Comparing Nash Equilibrium and Pareto Optimum}{equation.2.11}{}}
\citation{axtell2009emergence}
\citation{codeRepo}
\@writefile{lof}{\contentsline {figure}{\numberline {2}{\ignorespaces Utility as a function of the number of agents. Blue is the Nash Equilibrium, Orange is the Pareto Optimum}}{5}{figure.2}\protected@file@percent }
\newlabel{fig:utility}{{2}{5}{Utility as a function of the number of agents. Blue is the Nash Equilibrium, Orange is the Pareto Optimum}{figure.2}{}}
\@writefile{toc}{\contentsline {section}{\numberline {3}Implementation in Java}{5}{section.3}\protected@file@percent }
\newlabel{sec:implementation-in-java}{{3}{5}{Implementation in Java}{section.3}{}}
\newlabel{lst:lstlisting6}{{3}{6}{}{lstlisting.-1}{}}
\newlabel{lst:lstlisting}{{3}{6}{}{lstlisting.-2}{}}
\newlabel{lst:lstlisting2}{{3}{7}{}{lstlisting.-3}{}}
\newlabel{lst:lstlisting3}{{3}{7}{}{lstlisting.-4}{}}
\newlabel{lst:lstlisting4}{{3}{7}{}{lstlisting.-5}{}}
\newlabel{lst:lstlisting5}{{3}{8}{}{lstlisting.-6}{}}
\@writefile{toc}{\contentsline {section}{\numberline {4}Results}{9}{section.4}\protected@file@percent }
\newlabel{sec:result_section}{{4}{9}{Results}{section.4}{}}
\newlabel{fig:results_effort}{{4}{9}{Results}{section.4}{}}
\@writefile{lof}{\contentsline {figure}{\numberline {3}{\ignorespaces Effort Levels for 10 agents}}{9}{figure.3}\protected@file@percent }
\citation{axtell2009emergence}
\newlabel{fig:results_utility}{{4}{10}{Results}{figure.3}{}}
\@writefile{lof}{\contentsline {figure}{\numberline {4}{\ignorespaces Utility Levels for 10 agents}}{10}{figure.4}\protected@file@percent }
\@writefile{toc}{\contentsline {section}{\numberline {5}Improvement to the Simulation}{10}{section.5}\protected@file@percent }
\newlabel{sec:improvement-to-the-simulation}{{5}{10}{Improvement to the Simulation}{section.5}{}}
\newlabel{fig:effort_extended}{{5}{11}{Improvement to the Simulation}{section.5}{}}
\@writefile{lof}{\contentsline {figure}{\numberline {5}{\ignorespaces Effort levels for 10 agents if we allow agreements between 2, 3, ..., 10 agents}}{11}{figure.5}\protected@file@percent }
\bibstyle{plain}
\bibdata{./bibliography}
\bibcite{axtell2009emergence}{1}
\newlabel{fig:utility_extended}{{5}{12}{Improvement to the Simulation}{figure.5}{}}
\@writefile{lof}{\contentsline {figure}{\numberline {6}{\ignorespaces Utility levels for 10 agents if we allow agreements between 2, 3, ..., 10 agents}}{12}{figure.6}\protected@file@percent }
\@writefile{toc}{\contentsline {section}{\numberline {6}Summary}{12}{section.6}\protected@file@percent }
\newlabel{sec:summary}{{6}{12}{Summary}{section.6}{}}
\bibcite{codeRepo}{2}
