\relax 
\providecommand\hyper@newdestlabel[2]{}
\bibstyle{plain}
\bibdata{./bibliography}
\bibcite{axtell2009emergence}{1}
\bibcite{codeRepo}{2}
\@setckpt{summary}{
\setcounter{page}{14}
\setcounter{equation}{11}
\setcounter{enumi}{0}
\setcounter{enumii}{0}
\setcounter{enumiii}{0}
\setcounter{enumiv}{2}
\setcounter{footnote}{0}
\setcounter{mpfootnote}{0}
\setcounter{part}{0}
\setcounter{section}{6}
\setcounter{subsection}{0}
\setcounter{subsubsection}{0}
\setcounter{paragraph}{0}
\setcounter{subparagraph}{0}
\setcounter{figure}{6}
\setcounter{table}{0}
\setcounter{lstnumber}{35}
\setcounter{parentequation}{0}
\setcounter{Item}{0}
\setcounter{Hfootnote}{0}
\setcounter{bookmark@seq@number}{8}
\setcounter{lstlisting}{0}
\setcounter{section@level}{1}
}
